{
 "actions": [],
 "creation": "2021-02-03 07:38:36.590288",
 "doctype": "DocType",
 "editable_grid": 1,
 "engine": "InnoDB",
 "field_order": [
  "loan_period",
  "max_articles"
 ],
 "fields": [
  {
   "fieldname": "loan_period",
   "fieldtype": "Int",
   "label": "Loan Period"
  },
  {
   "fieldname": "max_articles",
   "fieldtype": "Int",
   "label": "Maximum Number of Issued Articles"
  }
 ],
 "index_web_pages_for_search": 1,
 "links": [],
 "modified": "2021-02-03 18:55:32.554921",
 "modified_by": "Administrator",
 "module": "Library Management",
 "name": "Library Settings",
 "owner": "Administrator",
 "permissions": [
  {
   "create": 1,
   "delete": 1,
   "email": 1,
   "export": 1,
   "print": 1,
   "read": 1,
   "report": 1,
   "role": "System Manager",
   "share": 1,
   "write": 1
  }
 ],
 "sort_field": "modified",
 "sort_order": "DESC",
 "track_changes": 1
}